{
  "Ford": [
    {
      "model": "Galaxy",
      "size": "Large"
    },
    {
      "model": "Kuga",
      "size": "Large"
    },
    {
      "model": "Mondeo",
      "size": "Large"
    },
    {
      "model": "S-max",
      "size": "Large"
    },
    {
      "model": "C-max",
      "size": "Standard"
    },
    {
      "model": "Escort",
      "size": "Standard"
    },
    {
      "model": "Fiesta",
      "size": "Standard"
    },
    {
      "model": "Focus",
      "size": "Standard"
    },
    {
      "model": "Focus C-max",
      "size": "Standard"
    },
    {
      "model": "Fusion",
      "size": "Standard"
    },
    {
      "model": "Grand C-max",
      "size": "Standard"
    },
    {
      "model": "Puma",
      "size": "Standard"
    },
    {
      "model": "Ranger",
      "size": "Standard"
    },
    {
      "model": "Streetka",
      "size": "Small"
    },
    {
      "model": "Ka",
      "size": "Small"
    }
  ],
  "Vauxhall": [
    {
      "model": "Antara",
      "size": "Large"
    },
    {
      "model": "Frontera",
      "size": "Large"
    },
    {
      "model": "Insignia",
      "size": "Large"
    },
    {
      "model": "Omega",
      "size": "Large"
    },
    {
      "model": "Signum",
      "size": "Large"
    },
    {
      "model": "Vectra",
      "size": "Large"
    },
    {
      "model": "Zafira",
      "size": "Large"
    },
    {
      "model": "Astra",
      "size": "Standard"
    },
    {
      "model": "Corsa",
      "size": "Standard"
    },
    {
      "model": "Meriva",
      "size": "Standard"
    },
    {
      "model": "Tigra",
      "size": "Standard"
    },
    {
      "model": "Agila",
      "size": "Small"
    }
  ],
  "Volkswagen": [
    {
      "model": "Caravelle",
      "size": "Large"
    },
    {
      "model": "Passat",
      "size": "Large"
    },
    {
      "model": "Passat Cc",
      "size": "Large"
    },
    {
      "model": "Sharan",
      "size": "Large"
    },
    {
      "model": "Touareg",
      "size": "Large"
    },
    {
      "model": "Touran",
      "size": "Large"
    },
    {
      "model": "Beetle",
      "size": "Standard"
    },
    {
      "model": "Bora",
      "size": "Standard"
    },
    {
      "model": "Eos",
      "size": "Standard"
    },
    {
      "model": "Golf",
      "size": "Standard"
    },
    {
      "model": "Golf Plus",
      "size": "Standard"
    },
    {
      "model": "Jetta",
      "size": "Standard"
    },
    {
      "model": "Polo",
      "size": "Standard"
    },
    {
      "model": "Scirocco",
      "size": "Standard"
    },
    {
      "model": "Tiguan",
      "size": "Standard"
    },
    {
      "model": "Lupo",
      "size": "Small"
    },
    {
      "model": "Fox",
      "size": "Small"
    }
  ],
  "Bmw": [
    {
      "model": "1 Series",
      "size": "Large"
    },
    {
      "model": "3 Series",
      "size": "Large"
    },
    {
      "model": "5 Series",
      "size": "Large"
    },
    {
      "model": "6 Series",
      "size": "Large"
    },
    {
      "model": "7 Series",
      "size": "Large"
    },
    {
      "model": "M3",
      "size": "Large"
    },
    {
      "model": "M5",
      "size": "Large"
    },
    {
      "model": "X1",
      "size": "Large"
    },
    {
      "model": "X3",
      "size": "Large"
    },
    {
      "model": "X5",
      "size": "Large"
    },
    {
      "model": "X6",
      "size": "Large"
    },
    {
      "model": "Z3",
      "size": "Standard"
    },
    {
      "model": "Z4",
      "size": "Standard"
    }
  ],
  "Peugeot": [
    {
      "model": "4007",
      "size": "Large"
    },
    {
      "model": "406",
      "size": "Large"
    },
    {
      "model": "407",
      "size": "Large"
    },
    {
      "model": "5008",
      "size": "Large"
    },
    {
      "model": "508",
      "size": "Large"
    },
    {
      "model": "Partner Combi",
      "size": "Large"
    },
    {
      "model": "206",
      "size": "Standard"
    },
    {
      "model": "207",
      "size": "Standard"
    },
    {
      "model": "3008",
      "size": "Standard"
    },
    {
      "model": "306",
      "size": "Standard"
    },
    {
      "model": "307",
      "size": "Standard"
    },
    {
      "model": "308",
      "size": "Standard"
    },
    {
      "model": "Rcz",
      "size": "Standard"
    },
    {
      "model": "1007",
      "size": "Small"
    },
    {
      "model": "106",
      "size": "Small"
    },
    {
      "model": "107",
      "size": "Small"
    }
  ],
  "Renault": [
    {
      "model": "Espace",
      "size": "Large"
    },
    {
      "model": "Grand Espace",
      "size": "Large"
    },
    {
      "model": "Grand Scenic",
      "size": "Large"
    },
    {
      "model": "Laguna",
      "size": "Large"
    },
    {
      "model": "Scenic",
      "size": "Large"
    },
    {
      "model": "Clio",
      "size": "Standard"
    },
    {
      "model": "Grand Modus",
      "size": "Standard"
    },
    {
      "model": "Kangoo",
      "size": "Standard"
    },
    {
      "model": "Megane",
      "size": "Standard"
    },
    {
      "model": "Megane Scenic",
      "size": "Standard"
    },
    {
      "model": "Modus",
      "size": "Standard"
    },
    {
      "model": "Twingo",
      "size": "Small"
    },
    {
      "model": "Wind",
      "size": "Small"
    }
  ],
  "Mercedes-benz": [
    {
      "model": "B Class",
      "size": "Large"
    },
    {
      "model": "C Class",
      "size": "Large"
    },
    {
      "model": "Cl",
      "size": "Large"
    },
    {
      "model": "Clc Class",
      "size": "Large"
    },
    {
      "model": "Clk",
      "size": "Large"
    },
    {
      "model": "Cls",
      "size": "Large"
    },
    {
      "model": "E Class",
      "size": "Large"
    },
    {
      "model": "M Class",
      "size": "Large"
    },
    {
      "model": "R Class",
      "size": "Large"
    },
    {
      "model": "S Class",
      "size": "Large"
    },
    {
      "model": "A Class",
      "size": "Standard"
    },
    {
      "model": "Sl Class",
      "size": "Standard"
    },
    {
      "model": "Slk",
      "size": "Standard"
    }
  ],
  "Audi": [
    {
      "model": "A5",
      "size": "Large"
    },
    {
      "model": "A6",
      "size": "Large"
    },
    {
      "model": "A8",
      "size": "Large"
    },
    {
      "model": "Allroad",
      "size": "Large"
    },
    {
      "model": "Q5",
      "size": "Large"
    },
    {
      "model": "Q7",
      "size": "Large"
    },
    {
      "model": "A1",
      "size": "Standard"
    },
    {
      "model": "A2",
      "size": "Standard"
    },
    {
      "model": "A3",
      "size": "Standard"
    },
    {
      "model": "A4",
      "size": "Standard"
    },
    {
      "model": "R8",
      "size": "Standard"
    },
    {
      "model": "Rs4",
      "size": "Standard"
    },
    {
      "model": "S3",
      "size": "Standard"
    },
    {
      "model": "S4",
      "size": "Standard"
    },
    {
      "model": "Tt",
      "size": "Standard"
    }
  ],
  "Toyota": [
    {
      "model": "Landcruiser",
      "size": "Large"
    },
    {
      "model": "Auris",
      "size": "Standard"
    },
    {
      "model": "Avensis",
      "size": "Standard"
    },
    {
      "model": "Celica",
      "size": "Standard"
    },
    {
      "model": "Corolla",
      "size": "Standard"
    },
    {
      "model": "Corolla Verso",
      "size": "Standard"
    },
    {
      "model": "Hilux",
      "size": "Standard"
    },
    {
      "model": "Mr2",
      "size": "Standard"
    },
    {
      "model": "Previa",
      "size": "Standard"
    },
    {
      "model": "Prius",
      "size": "Standard"
    },
    {
      "model": "Rav 4",
      "size": "Standard"
    },
    {
      "model": "Verso",
      "size": "Standard"
    },
    {
      "model": "Aygo",
      "size": "Small"
    },
    {
      "model": "Iq",
      "size": "Small"
    },
    {
      "model": "Yaris",
      "size": "Small"
    }
  ],
  "Nissan": [
    {
      "model": "Navara",
      "size": "Large"
    },
    {
      "model": "Pathfinder",
      "size": "Large"
    },
    {
      "model": "Qashqai+2",
      "size": "Large"
    },
    {
      "model": "350 Z",
      "size": "Standard"
    },
    {
      "model": "370 Z",
      "size": "Standard"
    },
    {
      "model": "Almera",
      "size": "Standard"
    },
    {
      "model": "Almera Tino",
      "size": "Standard"
    },
    {
      "model": "Juke",
      "size": "Standard"
    },
    {
      "model": "Note",
      "size": "Standard"
    },
    {
      "model": "Primera",
      "size": "Standard"
    },
    {
      "model": "Qashqai",
      "size": "Standard"
    },
    {
      "model": "Terrano",
      "size": "Standard"
    },
    {
      "model": "X-trail",
      "size": "Standard"
    },
    {
      "model": "Micra",
      "size": "Small"
    },
    {
      "model": "Pixo",
      "size": "Small"
    }
  ],
  "Honda": [
    {
      "model": "Fr-v",
      "size": "Large"
    },
    {
      "model": "Accord",
      "size": "Standard"
    },
    {
      "model": "Civic",
      "size": "Standard"
    },
    {
      "model": "Cr-v",
      "size": "Standard"
    },
    {
      "model": "Cr-z",
      "size": "Standard"
    },
    {
      "model": "Insight",
      "size": "Standard"
    },
    {
      "model": "Jazz",
      "size": "Standard"
    },
    {
      "model": "S2000",
      "size": "Standard"
    },
    {
      "model": "Hr-v",
      "size": "Small"
    }
  ],
  "Mazda": [
    {
      "model": "Mazda5",
      "size": "Large"
    },
    {
      "model": "Mazda6",
      "size": "Large"
    },
    {
      "model": "Rx8",
      "size": "Large"
    },
    {
      "model": "2",
      "size": "Standard"
    },
    {
      "model": "323",
      "size": "Standard"
    },
    {
      "model": "Mazda2",
      "size": "Standard"
    },
    {
      "model": "Mazda3",
      "size": "Standard"
    },
    {
      "model": "Mx-5",
      "size": "Small"
    }
  ],
  "Hyundai": [
    {
      "model": "Accent",
      "size": "Standard"
    },
    {
      "model": "Coupe",
      "size": "Standard"
    },
    {
      "model": "Getz",
      "size": "Standard"
    },
    {
      "model": "I20",
      "size": "Standard"
    },
    {
      "model": "I30",
      "size": "Standard"
    },
    {
      "model": "Ix35",
      "size": "Standard"
    },
    {
      "model": "Matrix",
      "size": "Standard"
    },
    {
      "model": "Santa Fe",
      "size": "Standard"
    },
    {
      "model": "Tucson",
      "size": "Standard"
    },
    {
      "model": "Amica",
      "size": "Small"
    },
    {
      "model": "I10",
      "size": "Small"
    }
  ],
  "Kia": [
    {
      "model": "Sedona",
      "size": "Large"
    },
    {
      "model": "Sorento",
      "size": "Large"
    },
    {
      "model": "Carens",
      "size": "Standard"
    },
    {
      "model": "Ceed",
      "size": "Standard"
    },
    {
      "model": "Pro Ceed",
      "size": "Standard"
    },
    {
      "model": "Rio",
      "size": "Standard"
    },
    {
      "model": "Soul",
      "size": "Standard"
    },
    {
      "model": "Sportage",
      "size": "Standard"
    },
    {
      "model": "Venga",
      "size": "Standard"
    },
    {
      "model": "Picanto",
      "size": "Small"
    }
  ],
  "Mitsubishi": [
    {
      "model": "Asx",
      "size": "Large"
    },
    {
      "model": "Shogun",
      "size": "Large"
    },
    {
      "model": "Shogun Sport",
      "size": "Large"
    },
    {
      "model": "Colt",
      "size": "Standard"
    },
    {
      "model": "L200",
      "size": "Standard"
    },
    {
      "model": "Lancer",
      "size": "Standard"
    },
    {
      "model": "Outlander",
      "size": "Standard"
    },
    {
      "model": "Pajero",
      "size": "Standard"
    },
    {
      "model": "Shogun Pinin",
      "size": "Standard"
    }
  ],
  "Suzuki": [
    {
      "model": "Grand Vitara",
      "size": "Standard"
    },
    {
      "model": "Sx4",
      "size": "Standard"
    },
    {
      "model": "Alto",
      "size": "Small"
    },
    {
      "model": "Ignis",
      "size": "Small"
    },
    {
      "model": "Jimny",
      "size": "Small"
    },
    {
      "model": "Splash",
      "size": "Small"
    },
    {
      "model": "Swift",
      "size": "Small"
    },
    {
      "model": "Wagon R",
      "size": "Small"
    }
  ],
  "Subaru": [
    {
      "model": "Outback",
      "size": "Large"
    },
    {
      "model": "Forester",
      "size": "Standard"
    },
    {
      "model": "Impreza",
      "size": "Standard"
    },
    {
      "model": "Legacy",
      "size": "Standard"
    }
  ],
  "Daewoo": [
    {
      "model": "Matiz",
      "size": "Small"
    }
  ],
  "Daihatsu": [
    {
      "model": "Terios",
      "size": "Standard"
    },
    {
      "model": "Sirion",
      "size": "Small"
    }
  ],
  "Lexus": [
    {
      "model": "Gs",
      "size": "Large"
    },
    {
      "model": "Is",
      "size": "Large"
    },
    {
      "model": "Ls",
      "size": "Large"
    },
    {
      "model": "Ct",
      "size": "Standard"
    },
    {
      "model": "Rx",
      "size": "Standard"
    }
  ],
  "Volvo": [
    {
      "model": "C70",
      "size": "Large"
    },
    {
      "model": "S60",
      "size": "Large"
    },
    {
      "model": "S80",
      "size": "Large"
    },
    {
      "model": "V60",
      "size": "Large"
    },
    {
      "model": "V70",
      "size": "Large"
    },
    {
      "model": "Xc60",
      "size": "Large"
    },
    {
      "model": "Xc70",
      "size": "Large"
    },
    {
      "model": "Xc90",
      "size": "Large"
    },
    {
      "model": "C30",
      "size": "Standard"
    },
    {
      "model": "S40",
      "size": "Standard"
    },
    {
      "model": "V40",
      "size": "Standard"
    },
    {
      "model": "V50",
      "size": "Standard"
    }
  ],
  "Citroen": [
    {
      "model": "Berlingo",
      "size": "Large"
    },
    {
      "model": "Berlingo Multispace",
      "size": "Large"
    },
    {
      "model": "C-crosser",
      "size": "Large"
    },
    {
      "model": "C4 Grand Picasso",
      "size": "Large"
    },
    {
      "model": "C4 Picasso",
      "size": "Large"
    },
    {
      "model": "C5",
      "size": "Large"
    },
    {
      "model": "C8",
      "size": "Large"
    },
    {
      "model": "Xsara Picasso",
      "size": "Large"
    },
    {
      "model": "C3",
      "size": "Standard"
    },
    {
      "model": "C3 Picasso",
      "size": "Standard"
    },
    {
      "model": "C4",
      "size": "Standard"
    },
    {
      "model": "Ds3",
      "size": "Standard"
    },
    {
      "model": "Ds4",
      "size": "Standard"
    },
    {
      "model": "Xsara",
      "size": "Standard"
    },
    {
      "model": "C1",
      "size": "Small"
    },
    {
      "model": "C2",
      "size": "Small"
    },
    {
      "model": "Saxo",
      "size": "Small"
    }
  ],
  "Fiat": [
    {
      "model": "Multipla",
      "size": "Large"
    },
    {
      "model": "Bravo",
      "size": "Standard"
    },
    {
      "model": "Doblo",
      "size": "Standard"
    },
    {
      "model": "Grande Punto",
      "size": "Standard"
    },
    {
      "model": "Punto",
      "size": "Standard"
    },
    {
      "model": "Punto Evo",
      "size": "Standard"
    },
    {
      "model": "Sedici",
      "size": "Standard"
    },
    {
      "model": "Stilo",
      "size": "Standard"
    },
    {
      "model": "500",
      "size": "Small"
    },
    {
      "model": "Panda",
      "size": "Small"
    },
    {
      "model": "Seicento",
      "size": "Small"
    }
  ],
  "Seat": [
    {
      "model": "Alhambra",
      "size": "Large"
    },
    {
      "model": "Altea",
      "size": "Standard"
    },
    {
      "model": "Altea Xl",
      "size": "Standard"
    },
    {
      "model": "Exeo",
      "size": "Standard"
    },
    {
      "model": "Ibiza",
      "size": "Standard"
    },
    {
      "model": "Leon",
      "size": "Standard"
    },
    {
      "model": "Toledo",
      "size": "Standard"
    }
  ],
  "Skoda": [
    {
      "model": "Superb",
      "size": "Large"
    },
    {
      "model": "Fabia",
      "size": "Standard"
    },
    {
      "model": "Octavia",
      "size": "Standard"
    },
    {
      "model": "Roomster",
      "size": "Standard"
    },
    {
      "model": "Yeti",
      "size": "Standard"
    }
  ],
  "Saab": [
    {
      "model": "9-5",
      "size": "Large"
    },
    {
      "model": "9-3",
      "size": "Standard"
    }
  ],
  "Alfa Romeo": [
    {
      "model": "159",
      "size": "Large"
    },
    {
      "model": "147",
      "size": "Standard"
    },
    {
      "model": "156",
      "size": "Standard"
    },
    {
      "model": "Brera",
      "size": "Standard"
    },
    {
      "model": "Giulietta",
      "size": "Standard"
    },
    {
      "model": "Gt",
      "size": "Standard"
    },
    {
      "model": "Mito",
      "size": "Standard"
    }
  ],
  "Chevrolet": [
    {
      "model": "Captiva",
      "size": "Large"
    },
    {
      "model": "Cruze",
      "size": "Large"
    },
    {
      "model": "Aveo",
      "size": "Standard"
    },
    {
      "model": "Kalos",
      "size": "Standard"
    },
    {
      "model": "Lacetti",
      "size": "Standard"
    },
    {
      "model": "Tacuma",
      "size": "Standard"
    },
    {
      "model": "Matiz",
      "size": "Small"
    },
    {
      "model": "Spark",
      "size": "Small"
    }
  ],
  "Chrysler": [
    {
      "model": "300c",
      "size": "Large"
    },
    {
      "model": "Grand Voyager",
      "size": "Large"
    },
    {
      "model": "Voyager",
      "size": "Large"
    },
    {
      "model": "Crossfire",
      "size": "Standard"
    },
    {
      "model": "Pt Cruiser",
      "size": "Standard"
    }
  ],
  "Land Rover": [
    {
      "model": "Range Rover",
      "size": "Large"
    },
    {
      "model": "Range Rover Evoque",
      "size": "Large"
    },
    {
      "model": "Range Rover Sport",
      "size": "Large"
    },
    {
      "model": "Defender",
      "size": "Standard"
    },
    {
      "model": "Discovery",
      "size": "Standard"
    },
    {
      "model": "Freelander",
      "size": "Standard"
    }
  ],
  "Rover": [
    {
      "model": "75",
      "size": "Large"
    },
    {
      "model": "25",
      "size": "Standard"
    },
    {
      "model": "45",
      "size": "Standard"
    }
  ],
  "Jaguar": [
    {
      "model": "S-type",
      "size": "Large"
    },
    {
      "model": "X-type",
      "size": "Large"
    },
    {
      "model": "Xf",
      "size": "Large"
    },
    {
      "model": "Xj",
      "size": "Large"
    },
    {
      "model": "Xk",
      "size": "Standard"
    }
  ],
  "Mg": [
    {
      "model": "Zt",
      "size": "Large"
    },
    {
      "model": "Zr",
      "size": "Standard"
    },
    {
      "model": "Zs",
      "size": "Standard"
    },
    {
      "model": "Mgf",
      "size": "Small"
    },
    {
      "model": "Tf",
      "size": "Small"
    }
  ],
  "Mini": [
    {
      "model": "Cooper",
      "size": "Standard"
    },
    {
      "model": "Cooper S",
      "size": "Standard"
    },
    {
      "model": "Hatchback",
      "size": "Standard"
    },
    {
      "model": "One",
      "size": "Standard"
    }
  ],
  "Bentley": [
    {
      "model": "Arnage",
      "size": "Large"
    },
    {
      "model": "Continental",
      "size": "Large"
    },
    {
      "model": "Continental Gt",
      "size": "Large"
    },
    {
      "model": "Continental Gtc",
      "size": "Large"
    }
  ],
  "Porsche": [
    {
      "model": "Cayenne",
      "size": "Large"
    },
    {
      "model": "Boxster",
      "size": "Standard"
    },
    {
      "model": "Cayman",
      "size": "Standard"
    },
    {
      "model": "911",
      "size": "Small"
    },
    {
      "model": "911 Turbo",
      "size": "Small"
    }
  ],
  "Smart": [
    {
      "model": "Forfour",
      "size": "Standard"
    },
    {
      "model": "City-coupe",
      "size": "Small"
    },
    {
      "model": "Fortwo",
      "size": "Small"
    }
  ],
  "Jeep": [
    {
      "model": "Grand Cherokee",
      "size": "Large"
    },
    {
      "model": "Cherokee",
      "size": "Standard"
    },
    {
      "model": "Patriot",
      "size": "Standard"
    }
  ],
  "Dodge": [
    {
      "model": "Caliber",
      "size": "Standard"
    }
  ],
  "Isuzu": [
    {
      "model": "Rodeo",
      "size": "Standard"
    }
  ],
  "Abarth": [
    {
      "model": "500",
      "size": "Small"
    }
  ],
  "Aston Martin": [
    {
      "model": "Db9",
      "size": "Large"
    },
    {
      "model": "Vantage",
      "size": "Standard"
    }
  ],
  "Maserati": [
    {
      "model": "Granturismo",
      "size": "Large"
    }
  ],
  "Ssangyong": [
    {
      "model": "Rexton",
      "size": "Large"
    }
  ]
}
